Slice signature into cycles — crosscut_slice • bulletsamplr
…
#> 306  -15.6250 75  58.76820          NA         NA -0.45660723 boundary     13
#> 307  -14.0625 75  58.58200          NA         NA -0.42260999 boundary     13
#> 308  -12.5000 75  58.11982          NA         NA -0.40296199 boundary     13
#> 309  -10.9375 75  57.50802          NA         NA -0.38703756 boundary     13
#> 310   -9.3750 75  54.56538          NA         NA -0.36421102 boundary     13
#> 311   -7.8125 75  54.13646          NA         NA -0.32385666 boundary     13
#> 312   -6.2500 75  53.55791          NA         NA -0.27204733 boundary     13
#> 313   -4.6875 75  52.90288          NA         NA -0.22020015 boundary     13
#> 314   -3.1250 75  52.62358          NA         NA -0.16570592 boundary     13
#> 315   -1.5625 75  52.24453          NA         NA -0.10595541 boundary     13
#> 316    0.0000 75  51.86880          NA         NA -0.03833941 boundary     13
#> 
crosscut_slice(sig$sig) # Slice signature only
#> [[1]]
#> # A tibble: 111 x 4
#>        x   sig .type    .chunk
#>    <int> <dbl> <chr>     <int>
#>  1  -110    NA boundary      0
#>  2  -109    NA boundary      0
#>  3  -108    NA boundary      0
#>  4  -107    NA boundary      0
#>  5  -106    NA boundary      0
#>  6  -105    NA boundary      0
#>  7  -104    NA boundary      0
#>  8  -103    NA boundary      0
#>  9  -102    NA boundary      0
#> 10  -101    NA boundary      0
#> # ... with 101 more rows
#> 
#> [[2]]
#> # A tibble: 59 x 4
#>        x    sig .type .chunk
#>    <int>  <dbl> <chr>  <int>
#>  1     0 0.0481 pn         1
#>  2     1 0.0966 pn         1
#>  3     2 0.137  pn         1
#>  4     3 0.190  pn         1
#>  5     4 0.241  pn         1
#>  6     5 0.276  pn         1
#>  7     6 0.282  pn         1
#>  8     7 0.258  pn         1
#>  9     8 0.219  pn         1
#> 10     9 0.167  pn         1
#> # ... with 49 more rows
#> 
#> [[3]]
#> # A tibble: 41 x 4
#>        x   sig .type .chunk
#>    <int> <dbl> <chr>  <int>
#>  1     0 0.148 pn         2
#>  2     1 0.395 pn         2
#>  3     2 0.642 pn         2
#>  4     3 0.845 pn         2
#>  5     4 0.961 pn         2
#>  6     5 0.987 pn         2
#>  7     6 0.959 pn         2
#>  8     7 0.894 pn         2
#>  9     8 0.809 pn         2
#> 10     9 0.721 pn         2
#> # ... with 31 more rows
#> 
#> [[4]]
#> # A tibble: 130 x 4
#>        x    sig .type .chunk
#>    <int>  <dbl> <chr>  <int>
#>  1     0 0.0350 pn         3
#>  2     1 0.114  pn         3
#>  3     2 0.182  pn         3
#>  4     3 0.259  pn         3
#>  5     4 0.357  pn         3
#>  6     5 0.456  pn         3
#>  7     6 0.534  pn         3
#>  8     7 0.592  pn         3
#>  9     8 0.642  pn         3
#> 10     9 0.683  pn         3
#> # ... with 120 more rows
#> 
#> [[5]]
#> # A tibble: 87 x 4
#>        x   sig .type .chunk
#>    <int> <dbl> <chr>  <int>
#>  1     0 0.    pn         4
#>  2     1 0.119 pn         4
#>  3     2 0.226 pn         4
#>  4     3 0.343 pn         4
#>  5     4 0.491 pn         4
#>  6     5 0.649 pn         4
#>  7     6 0.798 pn         4
#>  8     7 0.916 pn         4
#>  9     8 1.03  pn         4
#> 10     9 1.16  pn         4
#> # ... with 77 more rows
#> 
#> [[6]]
#> # A tibble: 35 x 4
#>        x   sig .type .chunk
#>    <int> <dbl> <chr>  <int>
#>  1     0 0.248 pn         5
#>  2     1 0.470 pn         5
#>  3     2 0.685 pn         5
#>  4     3 0.954 pn         5
#>  5     4 1.24  pn         5
#>  6     5 1.49  pn         5
#>  7     6 1.67  pn         5
#>  8     7 1.81  pn         5
#>  9     8 1.94  pn         5
#> 10     9 2.06  pn         5
#> # ... with 25 more rows
#> 
#> [[7]]
#> # A tibble: 115 x 4
#>        x    sig .type .chunk
#>    <int>  <dbl> <chr>  <int>
#>  1     0 0.0238 pn         6
#>  2     1 0.0414 pn         6
#>  3     2 0.0715 pn         6
#>  4     3 0.102  pn         6
#>  5     4 0.121  pn         6
#>  6     5 0.132  pn         6
#>  7     6 0.142  pn         6
#>  8     7 0.148  pn         6
#>  9     8 0.147  pn         6
#> 10     9 0.134  pn         6
#> # ... with 105 more rows
#> 
#> [[8]]
#> # A tibble: 82 x 4
#>        x    sig .type .chunk
#>    <int>  <dbl> <chr>  <int>
#>  1     0 0.0948 pn         7
#>  2     1 0.345  pn         7
#>  3     2 0.634  pn         7
#>  4     3 0.967  pn         7
#>  5     4 1.31   pn         7
#>  6     5 1.63   pn         7
#>  7     6 1.96   pn         7
#>  8     7 2.36   pn         7
#>  9     8 2.77   pn         7
#> 10     9 3.15   pn         7
#> # ... with 72 more rows
#> 
#> [[9]]
#> # A tibble: 85 x 4
#>        x     sig .type .chunk
#>    <int>   <dbl> <chr>  <int>
#>  1     0  0.0335 pn         8
#>  2     1  0.125  pn         8
#>  3     2  0.209  pn         8
#>  4     3  0.276  pn         8
#>  5     4  0.314  pn         8
#>  6     5  0.313  pn         8
#>  7     6  0.252  pn         8
#>  8     7  0.133  pn         8
#>  9     8 -0.0192 pn         8
#> 10     9 -0.178  pn         8
#> # ... with 75 more rows
#> 
#> [[10]]
#> # A tibble: 48 x 4
#>        x      sig .type .chunk
#>    <int>    <dbl> <chr>  <int>
#>  1     0  0.00564 pn         9
#>  2     1  0.0174  pn         9
#>  3     2  0.0152  pn         9
#>  4     3 -0.00392 pn         9
#>  5     4 -0.0374  pn         9
#>  6     5 -0.0805  pn         9
#>  7     6 -0.128   pn         9
#>  8     7 -0.176   pn         9
#>  9     8 -0.240   pn         9
#> 10     9 -0.325   pn         9
#> # ... with 38 more rows
#> 
#> [[11]]
#> # A tibble: 39 x 4
#>        x    sig .type .chunk
#>    <int>  <dbl> <chr>  <int>
#>  1     0 0.0258 pn        10
#>  2     1 0.146  pn        10
#>  3     2 0.242  pn        10
#>  4     3 0.324  pn        10
#>  5     4 0.406  pn        10
#>  6     5 0.482  pn        10
#>  7     6 0.548  pn        10
#>  8     7 0.597  pn        10
#>  9     8 0.621  pn        10
#> 10     9 0.624  pn        10
#> # ... with 29 more rows
#> 
#> [[12]]
#> # A tibble: 291 x 4
#>        x    sig .type .chunk
#>    <int>  <dbl> <chr>  <int>
#>  1     0 0.0394 pn        11
#>  2     1 0.0866 pn        11
#>  3     2 0.148  pn        11
#>  4     3 0.245  pn        11
#>  5     4 0.354  pn        11
#>  6     5 0.452  pn        11
#>  7     6 0.516  pn        11
#>  8     7 0.554  pn        11
#>  9     8 0.588  pn        11
#> 10     9 0.618  pn        11
#> # ... with 281 more rows
#> 
#> [[13]]
#> # A tibble: 57 x 4
#>        x   sig .type .chunk
#>    <int> <dbl> <chr>  <int>
#>  1     0 0.168 pn        12
#>  2     1 0.372 pn        12
#>  3     2 0.582 pn        12
#>  4     3 0.781 pn        12
#>  5     4 0.950 pn        12
#>  6     5 1.12  pn        12
#>  7     6 1.30  pn        12
#>  8     7 1.49  pn        12
#>  9     8 1.65  pn        12
#> 10     9 1.76  pn        12
#> # ... with 47 more rows
#> 
#> [[14]]
#> # A tibble: 316 x 4
#>        x   sig .type    .chunk
#>    <int> <dbl> <chr>     <int>
#>  1  -315    NA boundary     13
#>  2  -314    NA boundary     13
#>  3  -313    NA boundary     13
#>  4  -312    NA boundary     13
#>  5  -311    NA boundary     13
#>  6  -310    NA boundary     13
#>  7  -309    NA boundary     13
#>  8  -308    NA boundary     13
#>  9  -307    NA boundary     13
#> 10  -306    NA boundary     13
#> # ... with 306 more rows
…
